courriel/EnvoiInvalide.class
poste/SacPostal.class
poste/Colis.class
maven_junit/maven_junit/App.class
poste/ObjetPostal.class
courriel/Main.class
courriel/Groupe.class
poste/Recommandation.class
courriel/mail.class
poste/ColisExpress.class
poste/ColisExpressInvalide.class
poste/Lettre.class
poste/MainPoste.class
